…
There are 237 distinct titles for people’s internships. The entries
should be checked for spelling errors, such as Reaserch instead of
Research. They should also be grouped, e.g. farm apprentice, farm
assistant, farm hand, farm intern. Make it more explicit when people
fill out the internship report to choose from a couple of specific
options that e.g. do not contain the type of institution (“Farm”).

``` r
Internships %>%
  group_by( `Title (if applicable)`) %>%
  count() %>%
  arrange(desc(n))
```

    ## # A tibble: 247 × 2
    ## # Groups:   Title (if applicable) [247]
    ##    `Title (if applicable)`     n
    ##    <chr>                   <int>
    ##  1 Intern                    516
    ##  2 NA                         63
    ##  3 Research Assistant         48
    ##  4 Reaserch Assistant         18
    ##  5 Student Teacher            12
    ##  6 Apprentice                  5
    ##  7 Assistant                   5
    ##  8 Field Assistant             5
    ##  9 Teacher Assistant           5
    ## 10 Camp Counselor              4
    ## # ℹ 237 more rows
…
